[
  {
    "icon": "mdi-noodles",
    "name": "Vue 基本邏輯",
    "child": [
      {
        "icon": "mdi-information",
        "name": "Vue 基本邏輯",
        "route": "/info"
      }
    ]
  },
  {
    "icon": "mdi-feather",
    "name": "功能實例紀錄",
    "child": [
      {
        "icon": "mdi-map",
        "name": "火車站點地圖",
        "route": "/mapToys"
      },
      {
        "icon": "mdi-emoticon-sick",
        "name": "COVID-19 疫情",
        "route": "/covid19"
      }
    ]
  },
  {
    "icon": "mdi-folder-star",
    "name": "其他",
    "child": [
      {
        "icon": "mdi-clipboard-list",
        "name": "任務管理器",
        "route": "/todoList"
      },
      {
        "icon": "mdi-basket",
        "name": "購物基礎業務邏輯",
        "route": "/basket"
      },
      {
        "icon": "mdi-home",
        "name": "回家作業",
        "route": "/work"
      }
    ]
  }
]